mtkcpu/cpu.vcd
$comment Generated by nMigen $end
$date 2021-03-06 19:46:13.804242 $end
$timescale 100 ps $end
$scope module top $end
$var wire 4 1 mem_r_addr $end
$var wire 32 2 read_data $end
$var wire 4 3 mem_w_addr $end
$var wire 32 6 mem_w_data $end
$var wire 1 8 mem_w_en $end
$var wire 9 9 read_addr $end
$var wire 32 a mem_r_data $end
$var wire 9 c write_addr $end
$var wire 32 d write_data $end
$var wire 1 e write_en $end
$var wire 1 11 clk $end
$var wire 1 13 rst $end
$scope module read_port $end
$var wire 4 0 mem_r_addr $end
$var wire 32 b mem_r_data $end
$var wire 1 10 clk $end
$var wire 1 12 rst $end
$var wire 4 15 latch_addr $end
$var wire 32 17 memory(0) $end
$var wire 32 19 memory(1) $end
$var wire 32 1b memory(2) $end
$var wire 32 1c memory(3) $end
$var wire 32 1f memory(4) $end
$var wire 32 20 memory(5) $end
$var wire 32 23 memory(6) $end
$var wire 32 25 memory(7) $end
$var wire 32 27 memory(8) $end
$var wire 32 29 memory(9) $end
$upscope $end
$scope module write_port $end
$var wire 4 4 mem_w_addr $end
$var wire 32 5 mem_w_data $end
$var wire 1 7 mem_w_en $end
$var wire 1 f clk $end
$var wire 1 14 rst $end
$var wire 32 16 memory(0) $end
$var wire 32 18 memory(1) $end
$var wire 32 1a memory(2) $end
$var wire 32 1d memory(3) $end
$var wire 32 1e memory(4) $end
$var wire 32 21 memory(5) $end
$var wire 32 22 memory(6) $end
$var wire 32 24 memory(7) $end
$var wire 32 26 memory(8) $end
$var wire 32 28 memory(9) $end
$upscope $end
$upscope $end
$enddefinitions $end
#0
$dumpvars
b0 0
b0 1
b110010001010000011 2
b0 3
b0 4
b0 5
b0 6
17
18
b0 9
b110010001010000011 a
b110010001010000011 b
b0 c
b0 d
1e
0f
010
011
012
013
014
b0 15
b110010001010000011 16
b110010001010000011 17
b11011110101011011100001100110111 18
b11011110101011011100001100110111 19
b11101110111100110000001100010011 1a
b11101110111100110000001100010011 1b
b0 1c
b0 1d
b0 1e
b0 1f
b0 20
b0 21
b0 22
b0 23
b0 24
b0 25
b0 26
b0 27
b0 28
b0 29
$end
#5000
110
1f
111
b100000000 d
b0 17
b0 16
0e
b1 9
b1 c
b1 4
b1 3
b100000000 5
b100000000 6
07
08
b0 b
b0 a
b1 0
b1 1
b0 2
#10000
010
0f
011
#15000
110
1f
111
b100000001 d
1e
b10 9
b1 15
b10 c
b10 4
b10 3
b100000001 5
b100000001 6
17
18
b11011110101011011100001100110111 b
b11011110101011011100001100110111 a
b10 0
b10 1
b11011110101011011100001100110111 2
#20000
010
0f
011
#24999
110
1f
111
b100000010 d
b100000001 1a
b100000001 1b
0e
b11 9
b10 15
b11 c
b11 4
b11 3
b100000010 5
b100000010 6
07
08
b100000001 b
b100000001 a
b11 0
b11 1
b100000001 2
#29999
010
0f
011
#34999
110
1f
111
b100000011 d
1e
b100 9
b11 15
b100 c
b100 4
b100 3
b100000011 5
b100000011 6
17
18
b0 b
b0 a
b100 0
b100 1
b0 2
#40000
010
0f
011
#45000
110
1f
111
b100000100 d
b100000011 1e
b100000011 1f
0e
b101 9
b100 15
b101 c
b101 4
b101 3
b100000100 5
b100000100 6
07
08
b100000011 b
b100000011 a
b101 0
b101 1
b100000011 2
#50000
010
0f
011
#55000
110
1f
111
b100000101 d
1e
b110 9
b101 15
b110 c
b110 4
b110 3
b100000101 5
b100000101 6
17
18
b0 b
b0 a
b110 0
b110 1
b0 2
#60000
010
0f
011
#65000
110
1f
111
b100000110 d
0e
b100000101 22
b100000101 23
b111 9
b110 15
b111 c
b111 4
b111 3
b100000110 5
b100000110 6
07
08
b100000101 b
b100000101 a
b111 0
b111 1
b100000101 2
#70000
010
0f
011
#75000
110
1f
111
b100000111 d
1e
b1000 9
b111 15
b1000 c
b1000 4
b1000 3
b100000111 5
b100000111 6
17
18
b0 b
b0 a
b1000 0
b1000 1
b0 2
#80000
010
0f
011
#85000
110
1f
111
b100001000 d
b100000111 27
b100000111 26
0e
b1001 9
b1000 15
b1001 c
b1001 4
b1001 3
b100001000 5
b100001000 6
07
08
b100000111 b
b100000111 a
b1001 0
b1001 1
b100000111 2
#90000
010
0f
011
#95000
110
1f
111
b100001001 d
1e
b1010 9
b1001 15
b1010 c
b1010 4
b1010 3
b100001001 5
b100001001 6
17
18
b0 b
b0 a
b1010 0
b1010 1
b0 2
#100000
010
0f
011
#105000
110
1f
111
b100001010 d
0e
b1011 9
b1010 15
b100001001 28
b100001001 29
b1011 c
b1011 4
b1011 3
b100001010 5
b100001010 6
07
08
b100001001 b
b100001001 a
b1011 0
b1011 1
b100001001 2
#110000
010
0f
011
#115000
110
1f
111
b100001011 d
1e
b1100 9
b1011 15
b1100 c
b1100 4
b1100 3
b100001011 5
b100001011 6
17
18
b1100 0
b1100 1
#120000
010
0f
011
#125000
110
1f
111
b100001100 d
0e
b1101 9
b1100 15
b100001011 28
b100001011 29
b1101 c
b1101 4
b1101 3
b100001100 5
b100001100 6
07
08
b100001011 b
b100001011 a
b1101 0
b1101 1
b100001011 2
#130000
010
0f
011
#135000
110
1f
111
b100001101 d
1e
b1110 9
b1101 15
b1110 c
b1110 4
b1110 3
b100001101 5
b100001101 6
17
18
b1110 0
b1110 1
#140000
010
0f
011
#145000
110
1f
111
b100001110 d
0e
b1111 9
b1110 15
b100001101 28
b100001101 29
b1111 c
b1111 4
b1111 3
b100001110 5
b100001110 6
07
08
b100001101 b
b100001101 a
b1111 0
b1111 1
b100001101 2
#150000
010
0f
011
#155000
110
1f
111
b100001111 d
1e
b10000 9
b1111 15
b10000 c
b0 4
b0 3
b100001111 5
b100001111 6
17
18
b0 0
b0 1
#160000
010
0f
011
#165000
110
1f
111
b100010000 d
b100001111 17
b100001111 16
0e
b10001 9
b0 15
b10001 c
b1 4
b1 3
b100010000 5
b100010000 6
07
08
b100001111 b
b100001111 a
b1 0
b1 1
b100001111 2
#170000
010
0f
011
#174999
110
1f
111
b100010001 d
1e
b10010 9
b1 15
b10010 c
b10 4
b10 3
b100010001 5
b100010001 6
17
18
b11011110101011011100001100110111 b
b11011110101011011100001100110111 a
b10 0
b10 1
b11011110101011011100001100110111 2
#179999
010
0f
011
#184999
110
1f
111
b100010010 d
b100010001 1a
b100010001 1b
0e
b10011 9
b10 15
b10011 c
b11 4
b11 3
b100010010 5
b100010010 6
07
08
b100010001 b
b100010001 a
b11 0
b11 1
b100010001 2
#189999
010
0f
011
#194999
110
1f
111
b100010011 d
1e
b10100 9
b11 15
b10100 c
b100 4
b100 3
b100010011 5
b100010011 6
17
18
b0 b
b0 a
b100 0
b100 1
b0 2
#199999
010
0f
011
#204999
110
1f
111
b100010100 d
b100010011 1e
b100010011 1f
0e
b10101 9
b100 15
b10101 c
b101 4
b101 3
b100010100 5
b100010100 6
07
08
b100010011 b
b100010011 a
b101 0
b101 1
b100010011 2
