pul/ctr.vcd
$comment Generated by nMigen $end
$date 2020-10-27 12:08:21.915123 $end
$timescale 100 ps $end
$scope module top $end
$var wire 1 ! clk $end
$var wire 1 " rst $end
$var wire 4 # val $end
$var wire 1 $ start $end
$var wire 1 % en $end
$var wire 4 & startval $end
$var wire 1 ' done $end
$upscope $end
$enddefinitions $end
#0
$dumpvars
0!
0"
b0 #
0$
1%
b0 &
1'
$end
#5000
1!
#10000
0!
#15000
1!
b11 &
1$
#20000
0!
#24999
1!
b11 #
0$
0'
#29999
0!
#34999
1!
b10 #
#40000
0!
#45000
1!
b1 #
#50000
0!
#55000
1!
b0 #
1'
1$
#60000
0!
#65000
1!
b11 #
0$
0'
#70000
0!
#75000
1!
0%
b10 #
#80000
0!
#85000
1!
#90000
0!
#95000
1!
#100000
0!
#105000
1!
#110000
0!
#115000
1!
#120000
0!
#125000
1!
#130000
0!
#135000
1!
#140000
0!
#145000
1!
#150000
0!
#155000
1!
#160000
0!
#165000
1!
#170000
0!
#174999
1!
1%
#179999
0!
#184999
1!
b1 #
#189999
0!
#194999
1!
b0 #
1'
