pul/ctr.vcd
$comment Generated by nMigen $end
$date 2020-11-11 08:49:27.117594 $end
$timescale 100 ps $end
$scope module top $end
$var wire 1 ! clk $end
$var wire 1 " rst $end
$var wire 8 # ctr $end
$var wire 8 $ lol $end
$var wire 8 % w_data $end
$var wire 1 & w_en $end
$var wire 1 ' r_en $end
$var wire 8 ( r_data $end
$scope module U$0 $end
$var wire 1 ! clk $end
$var wire 1 " rst $end
$var wire 8 % w_data $end
$var wire 1 & w_en $end
$var wire 1 ' r_en $end
$var wire 8 ( r_data $end
$var wire 1 ) w_rdy $end
$var wire 3 * level $end
$var wire 1 + r_rdy $end
$var wire 3 , w_level $end
$var wire 3 - r_level $end
$var wire 2 . storage_w_addr $end
$var wire 2 / produce $end
$var wire 8 0 storage_w_data $end
$var wire 1 1 storage_w_en $end
$var wire 2 2 storage_r_addr $end
$var wire 2 3 consume $end
$var wire 8 4 storage_r_data $end
$scope module r_port $end
$var wire 2 2 storage_r_addr $end
$var wire 8 4 storage_r_data $end
$var wire 8 5 memory(0) $end
$var wire 8 6 memory(1) $end
$var wire 8 7 memory(2) $end
$var wire 8 8 memory(3) $end
$upscope $end
$scope module w_port $end
$var wire 1 ! clk $end
$var wire 1 " rst $end
$var wire 2 . storage_w_addr $end
$var wire 8 0 storage_w_data $end
$var wire 1 1 storage_w_en $end
$var wire 8 5 memory(0) $end
$var wire 8 6 memory(1) $end
$var wire 8 7 memory(2) $end
$var wire 8 8 memory(3) $end
$upscope $end
$upscope $end
$upscope $end
$enddefinitions $end
#0
$dumpvars
0!
0"
b0 #
b0 $
b0 %
0&
0'
b0 (
1)
b0 *
0+
b0 ,
b0 -
b0 .
b0 /
b0 0
01
b0 2
b0 3
b0 4
b0 5
b0 6
b0 7
b0 8
$end
#5000
1!
1&
b1 #
b1 $
1'
b11011101 %
b11011101 0
11
#10000
0!
#15000
1!
b1 *
b10 #
b0 $
b11011101 5
b11011110 %
b1 /
1+
b1 ,
b1 -
b1 .
b11011101 4
b11011110 0
b11011101 (
#20000
0!
#24999
1!
b1 3
b11 #
b11011110 6
b11011101 $
b11011111 %
b10 /
b11011111 0
b1 2
b10 .
b11011110 4
b11011110 (
#29999
0!
#34999
1!
b11011111 7
b10 3
b100 #
b11011110 $
b11100000 %
b11 /
b11100000 0
b10 2
b11 .
b11011111 4
b11011111 (
#40000
0!
#45000
1!
b11 3
b11100000 8
b101 #
b11011111 $
b11100001 %
b0 /
b11100001 0
b11 2
b0 .
b11100000 4
b11100000 (
#50000
0!
#55000
1!
b0 3
b110 #
b11100000 $
b11100001 5
b11100010 %
b1 /
b11100010 0
b0 2
b1 .
b11100001 4
b11100001 (
#60000
0!
#65000
1!
b1 3
b111 #
b11100010 6
b11100001 $
b11100011 %
b10 /
b11100011 0
b1 2
b10 .
b11100010 4
b11100010 (
#70000
0!
#75000
1!
b11100011 7
b10 3
b1000 #
b11100010 $
b11100100 %
b11 /
b11100100 0
b10 2
b11 .
b11100011 4
b11100011 (
#80000
0!
#85000
1!
b11 3
b11100100 8
b1001 #
b11100011 $
b11100101 %
b0 /
b11100101 0
b11 2
b0 .
b11100100 4
b11100100 (
#90000
0!
#95000
1!
b0 3
b1010 #
b11100100 $
b11100101 5
b11100110 %
b1 /
b11100110 0
b0 2
b1 .
b11100101 4
b11100101 (
#100000
0!
#105000
1!
b1 3
b1011 #
b11100110 6
b11100101 $
b11100111 %
b10 /
b11100111 0
b1 2
b10 .
b11100110 4
b11100110 (
#110000
0!
#115000
1!
b11100111 7
b10 3
b1100 #
b11100110 $
b11101000 %
b11 /
b11101000 0
b10 2
b11 .
b11100111 4
b11100111 (
#120000
0!
#125000
1!
b11 3
b11101000 8
b1101 #
b11100111 $
b11101001 %
b0 /
b11101001 0
b11 2
b0 .
b11101000 4
b11101000 (
#130000
0!
#135000
1!
b0 3
b1110 #
b11101000 $
b11101001 5
b11101010 %
b1 /
b11101010 0
b0 2
b1 .
b11101001 4
b11101001 (
#140000
0!
#145000
1!
b1 3
b1111 #
b11101010 6
b11101001 $
b11101011 %
b10 /
b11101011 0
b1 2
b10 .
b11101010 4
b11101010 (
#150000
0!
#155000
1!
b11101011 7
b10 3
b10000 #
b11101010 $
b11101100 %
b11 /
b11101100 0
b10 2
b11 .
b11101011 4
b11101011 (
#160000
0!
#165000
1!
b11 3
b11101100 8
b10001 #
b11101011 $
b11101101 %
b0 /
b11101101 0
b11 2
b0 .
b11101100 4
b11101100 (
#170000
0!
#174999
1!
b0 3
b10010 #
b11101100 $
b11101101 5
b11101110 %
b1 /
b11101110 0
b0 2
b1 .
b11101101 4
b11101101 (
#179999
0!
#184999
1!
b1 3
b10011 #
b11101110 6
b11101101 $
b11101111 %
b10 /
b11101111 0
b1 2
b10 .
b11101110 4
b11101110 (
#189999
0!
#194999
1!
b11101111 7
b10 3
b10100 #
b11101110 $
b11110000 %
b11 /
b11110000 0
b10 2
b11 .
b11101111 4
b11101111 (
#199999
0!
#204999
1!
b11 3
b11110000 8
b10101 #
b11101111 $
b11110001 %
b0 /
b11110001 0
b11 2
b0 .
b11110000 4
b11110000 (
#209999
0!
#214999
1!
b0 3
b10110 #
b11110000 $
b11110001 5
b11110010 %
b1 /
b11110010 0
b0 2
b1 .
b11110001 4
b11110001 (
#219999
0!
#224999
1!
b1 3
b10111 #
b11110010 6
b11110001 $
b11110011 %
b10 /
b11110011 0
b1 2
b10 .
b11110010 4
b11110010 (
#229999
0!
#234999
1!
b11110011 7
b10 3
b11000 #
b11110010 $
b11110100 %
b11 /
b11110100 0
b10 2
b11 .
b11110011 4
b11110011 (
#239999
0!
#244999
1!
b11 3
b11110100 8
b11001 #
b11110011 $
b11110101 %
b0 /
b11110101 0
b11 2
b0 .
b11110100 4
b11110100 (
#249999
0!
#254999
1!
b0 3
b11010 #
b11110100 $
b11110101 5
b11110110 %
b1 /
b11110110 0
b0 2
b1 .
b11110101 4
b11110101 (
#259999
0!
#264999
1!
b1 3
b11011 #
b11110110 6
b11110101 $
b11110111 %
b10 /
b11110111 0
b1 2
b10 .
b11110110 4
b11110110 (
#269999
0!
#274999
1!
b11110111 7
b10 3
b11100 #
b11110110 $
b11111000 %
b11 /
b11111000 0
b10 2
b11 .
b11110111 4
b11110111 (
#279999
0!
#284999
1!
b11 3
b11111000 8
b11101 #
b11110111 $
b11111001 %
b0 /
b11111001 0
b11 2
b0 .
b11111000 4
b11111000 (
#289999
0!
#294999
1!
b0 3
b11110 #
b11111000 $
b11111001 5
b11111010 %
b1 /
b11111010 0
b0 2
b1 .
b11111001 4
b11111001 (
#299999
0!
#304999
1!
b1 3
b11111 #
b11111010 6
b11111001 $
b11111011 %
b10 /
b11111011 0
b1 2
b10 .
b11111010 4
b11111010 (
#309999
0!
#314999
1!
b11111011 7
b10 3
b100000 #
b11111010 $
b11111100 %
b11 /
b11111100 0
b10 2
b11 .
b11111011 4
b11111011 (
#319999
0!
#324999
1!
b11 3
b11111100 8
b100001 #
b11111011 $
b11111101 %
b0 /
b11111101 0
b11 2
b0 .
b11111100 4
b11111100 (
#329999
0!
#334999
1!
b0 3
b100010 #
b11111100 $
b11111101 5
b11111110 %
b1 /
b11111110 0
b0 2
b1 .
b11111101 4
b11111101 (
#339999
0!
#344999
1!
b1 3
b100011 #
b11111110 6
b11111101 $
b11111111 %
b10 /
b11111111 0
b1 2
b10 .
b11111110 4
b11111110 (
#349999
0!
#354999
1!
b11111111 7
b10 3
b100100 #
b11111110 $
b0 %
b11 /
b0 0
b10 2
b11 .
b11111111 4
b11111111 (
#359999
0!
#364999
1!
b11 3
b0 8
b100101 #
b11111111 $
b1 %
b0 /
b1 0
b11 2
b0 .
b0 4
b0 (
#369999
0!
#374999
1!
b0 3
b100110 #
b0 $
b1 5
b10 %
b1 /
b10 0
b0 2
b1 .
b1 4
b1 (
#379999
0!
#384999
1!
b1 3
b100111 #
b10 6
b1 $
b11 %
b10 /
b11 0
b1 2
b10 .
b10 4
b10 (
#389999
0!
#394999
1!
b11 7
b10 3
b101000 #
b10 $
b100 %
b11 /
b100 0
b10 2
b11 .
b11 4
b11 (
#399999
0!
#404999
1!
b11 3
b100 8
b101001 #
b11 $
b101 %
b0 /
b101 0
b11 2
b0 .
b100 4
b100 (
#409999
0!
#414999
1!
b0 3
b101010 #
b100 $
b101 5
b110 %
b1 /
b110 0
b0 2
b1 .
b101 4
b101 (
#419999
0!
#424999
1!
b1 3
b101011 #
b110 6
b101 $
b111 %
b10 /
b111 0
b1 2
b10 .
b110 4
b110 (
#429999
0!
#434999
1!
b111 7
b10 3
b101100 #
b110 $
b1000 %
b11 /
b1000 0
b10 2
b11 .
b111 4
b111 (
#439999
0!
#444999
1!
b11 3
b1000 8
b101101 #
b111 $
b1001 %
b0 /
b1001 0
b11 2
b0 .
b1000 4
b1000 (
#449999
0!
#454999
1!
b0 3
b101110 #
b1000 $
b1001 5
b1010 %
b1 /
b1010 0
b0 2
b1 .
b1001 4
b1001 (
#459999
0!
#464999
1!
b1 3
b101111 #
b1010 6
b1001 $
b1011 %
b10 /
b1011 0
b1 2
b10 .
b1010 4
b1010 (
#469999
0!
#474999
1!
b1011 7
b10 3
b110000 #
b1010 $
b1100 %
b11 /
b1100 0
b10 2
b11 .
b1011 4
b1011 (
#479999
0!
#484999
1!
b11 3
b1100 8
b110001 #
b1011 $
b1101 %
b0 /
b1101 0
b11 2
b0 .
b1100 4
b1100 (
#489999
0!
#494999
1!
b0 3
b110010 #
b1100 $
b1101 5
b1110 %
b1 /
b1110 0
b0 2
b1 .
b1101 4
b1101 (
#499999
0!
#504999
1!
b1 3
b110011 #
b1110 6
b1101 $
b1111 %
b10 /
b1111 0
b1 2
b10 .
b1110 4
b1110 (
#509999
0!
#514999
1!
b1111 7
b10 3
b110100 #
b1110 $
b10000 %
b11 /
b10000 0
b10 2
b11 .
b1111 4
b1111 (
#519999
0!
#524999
1!
b11 3
b10000 8
b110101 #
b1111 $
b10001 %
b0 /
b10001 0
b11 2
b0 .
b10000 4
b10000 (
#529999
0!
#534999
1!
b0 3
b110110 #
b10000 $
b10001 5
b10010 %
b1 /
b10010 0
b0 2
b1 .
b10001 4
b10001 (
#539999
0!
#544999
1!
b1 3
b110111 #
b10010 6
b10001 $
b10011 %
b10 /
b10011 0
b1 2
b10 .
b10010 4
b10010 (
#549999
0!
#554999
1!
b10011 7
b10 3
b111000 #
b10010 $
b10100 %
b11 /
b10100 0
b10 2
b11 .
b10011 4
b10011 (
#559999
0!
#564999
1!
b11 3
b10100 8
b111001 #
b10011 $
b10101 %
b0 /
b10101 0
b11 2
b0 .
b10100 4
b10100 (
#569999
0!
#574999
1!
b0 3
b111010 #
b10100 $
b10101 5
b10110 %
b1 /
b10110 0
b0 2
b1 .
b10101 4
b10101 (
#579999
0!
#584999
1!
b1 3
b111011 #
b10110 6
b10101 $
b10111 %
b10 /
b10111 0
b1 2
b10 .
b10110 4
b10110 (
#589999
0!
#594999
1!
b10111 7
b10 3
b111100 #
b10110 $
b11000 %
b11 /
b11000 0
b10 2
b11 .
b10111 4
b10111 (
#599999
0!
#604999
1!
b11 3
b11000 8
b111101 #
b10111 $
b11001 %
b0 /
b11001 0
b11 2
b0 .
b11000 4
b11000 (
#609999
0!
#614999
1!
b0 3
b111110 #
b11000 $
b11001 5
b11010 %
b1 /
b11010 0
b0 2
b1 .
b11001 4
b11001 (
#619999
0!
#624999
1!
b1 3
b111111 #
b11010 6
b11001 $
b11011 %
b10 /
b11011 0
b1 2
b10 .
b11010 4
b11010 (
#629999
0!
#634999
1!
b11011 7
b10 3
b1000000 #
b11010 $
b11100 %
b11 /
b11100 0
b10 2
b11 .
b11011 4
b11011 (
#639999
0!
#644999
1!
b11 3
b11100 8
b1000001 #
b11011 $
b11101 %
b0 /
b11101 0
b11 2
b0 .
b11100 4
b11100 (
#649999
0!
#654999
1!
b0 3
b1000010 #
b11100 $
b11101 5
b11110 %
b1 /
b11110 0
b0 2
b1 .
b11101 4
b11101 (
#659999
0!
#664999
1!
b1 3
b1000011 #
b11110 6
b11101 $
b11111 %
b10 /
b11111 0
b1 2
b10 .
b11110 4
b11110 (
#669999
0!
#674999
1!
b11111 7
b10 3
b1000100 #
b11110 $
b100000 %
b11 /
b100000 0
b10 2
b11 .
b11111 4
b11111 (
#679999
0!
#684999
1!
b11 3
b100000 8
b1000101 #
b11111 $
b100001 %
b0 /
b100001 0
b11 2
b0 .
b100000 4
b100000 (
#689999
0!
#694999
1!
b0 3
b1000110 #
b100000 $
b100001 5
b100010 %
b1 /
b100010 0
b0 2
b1 .
b100001 4
b100001 (
#699999
0!
#704999
1!
b1 3
b1000111 #
b100010 6
b100001 $
b100011 %
b10 /
b100011 0
b1 2
b10 .
b100010 4
b100010 (
#709999
0!
#714999
1!
b100011 7
b10 3
b1001000 #
b100010 $
b100100 %
b11 /
b100100 0
b10 2
b11 .
b100011 4
b100011 (
#719999
0!
#724999
1!
b11 3
b100100 8
b1001001 #
b100011 $
b100101 %
b0 /
b100101 0
b11 2
b0 .
b100100 4
b100100 (
#729999
0!
#734999
1!
b0 3
b1001010 #
b100100 $
b100101 5
b100110 %
b1 /
b100110 0
b0 2
b1 .
b100101 4
b100101 (
#739999
0!
#744999
1!
b1 3
b1001011 #
b100110 6
b100101 $
b100111 %
b10 /
b100111 0
b1 2
b10 .
b100110 4
b100110 (
#749999
0!
#754999
1!
b100111 7
b10 3
b1001100 #
b100110 $
b101000 %
b11 /
b101000 0
b10 2
b11 .
b100111 4
b100111 (
#759999
0!
#764999
1!
b11 3
b101000 8
b1001101 #
b100111 $
b101001 %
b0 /
b101001 0
b11 2
b0 .
b101000 4
b101000 (
#769999
0!
#774999
1!
b0 3
b1001110 #
b101000 $
b101001 5
b101010 %
b1 /
b101010 0
b0 2
b1 .
b101001 4
b101001 (
#779999
0!
#784999
1!
b1 3
b1001111 #
b101010 6
b101001 $
b101011 %
b10 /
b101011 0
b1 2
b10 .
b101010 4
b101010 (
#789999
0!
#794999
1!
b101011 7
b10 3
b1010000 #
b101010 $
b101100 %
b11 /
b101100 0
b10 2
b11 .
b101011 4
b101011 (
#799999
0!
#804999
1!
b11 3
b101100 8
b1010001 #
b101011 $
b101101 %
b0 /
b101101 0
b11 2
b0 .
b101100 4
b101100 (
#809999
0!
#814999
1!
b0 3
b1010010 #
b101100 $
b101101 5
b101110 %
b1 /
b101110 0
b0 2
b1 .
b101101 4
b101101 (
#819999
0!
#824999
1!
b1 3
b1010011 #
b101110 6
b101101 $
b101111 %
b10 /
b101111 0
b1 2
b10 .
b101110 4
b101110 (
#829999
0!
#834999
1!
b101111 7
b10 3
b1010100 #
b101110 $
b110000 %
b11 /
b110000 0
b10 2
b11 .
b101111 4
b101111 (
#839999
0!
#844999
1!
b11 3
b110000 8
b1010101 #
b101111 $
b110001 %
b0 /
b110001 0
b11 2
b0 .
b110000 4
b110000 (
#849999
0!
#854999
1!
b0 3
b1010110 #
b110000 $
b110001 5
b110010 %
b1 /
b110010 0
b0 2
b1 .
b110001 4
b110001 (
#859999
0!
#864999
1!
b1 3
b1010111 #
b110010 6
b110001 $
b110011 %
b10 /
b110011 0
b1 2
b10 .
b110010 4
b110010 (
#869999
0!
#874999
1!
b110011 7
b10 3
b1011000 #
b110010 $
b110100 %
b11 /
b110100 0
b10 2
b11 .
b110011 4
b110011 (
#879999
0!
#884999
1!
b11 3
b110100 8
b1011001 #
b110011 $
b110101 %
b0 /
b110101 0
b11 2
b0 .
b110100 4
b110100 (
#889999
0!
#894999
1!
b0 3
b1011010 #
b110100 $
b110101 5
b110110 %
b1 /
b110110 0
b0 2
b1 .
b110101 4
b110101 (
#899999
0!
#904999
1!
b1 3
b1011011 #
b110110 6
b110101 $
b110111 %
b10 /
b110111 0
b1 2
b10 .
b110110 4
b110110 (
#909999
0!
#914999
1!
b110111 7
b10 3
b1011100 #
b110110 $
b111000 %
b11 /
b111000 0
b10 2
b11 .
b110111 4
b110111 (
#919999
0!
#924999
1!
b11 3
b111000 8
b1011101 #
b110111 $
b111001 %
b0 /
b111001 0
b11 2
b0 .
b111000 4
b111000 (
#929999
0!
#934999
1!
b0 3
b1011110 #
b111000 $
b111001 5
b111010 %
b1 /
b111010 0
b0 2
b1 .
b111001 4
b111001 (
#939999
0!
#944999
1!
b1 3
b1011111 #
b111010 6
b111001 $
b111011 %
b10 /
b111011 0
b1 2
b10 .
b111010 4
b111010 (
#949999
0!
#954999
1!
b111011 7
b10 3
b1100000 #
b111010 $
b111100 %
b11 /
b111100 0
b10 2
b11 .
b111011 4
b111011 (
#959999
0!
#964999
1!
b11 3
b111100 8
b1100001 #
b111011 $
b111101 %
b0 /
b111101 0
b11 2
b0 .
b111100 4
b111100 (
#969999
0!
#974999
1!
b0 3
b1100010 #
b111100 $
b111101 5
b111110 %
b1 /
b111110 0
b0 2
b1 .
b111101 4
b111101 (
#979999
0!
#984999
1!
b1 3
b1100011 #
b111110 6
b111101 $
b111111 %
b10 /
b111111 0
b1 2
b10 .
b111110 4
b111110 (
#989999
0!
#994999
1!
b111111 7
b10 3
b1100100 #
b111110 $
b1000000 %
b11 /
b1000000 0
b10 2
b11 .
b111111 4
b111111 (
#999999
0!
#1004999
1!
b11 3
b1000000 8
b1100101 #
b111111 $
b1000001 %
b0 /
b1000001 0
b11 2
b0 .
b1000000 4
b1000000 (
