pul/mul.vcd
$comment Generated by nMigen $end
$date 2020-11-04 12:52:10.596093 $end
$timescale 100 ps $end
$scope module top $end
$var wire 1 ! clk $end
$var wire 1 " rst $end
$var wire 4 # tmp $end
$var wire 8 $ bb $end
$var string 1 % fsm_state $end
$var wire 4 & counter $end
$var wire 1 ' bit $end
$var wire 8 ( out $end
$var wire 4 ) a $end
$var wire 4 * b $end
$var wire 1 + en $end
$upscope $end
$enddefinitions $end
#0
$dumpvars
0!
0"
b0 #
b0 $
sSTART/0 %
b1 &
0'
b0 (
b0 )
b0 *
0+
$end
#5000
1!
b10 *
b101 )
#10000
0!
#15000
1!
b101 #
b10 $
#20000
0!
#24999
1!
1+
#29999
0!
#34999
1!
sLOOP/1 %
1'
#40000
0!
#45000
1!
b10 #
b10 (
b100 $
b10 &
0'
#50000
0!
#55000
1!
b1 #
b1000 $
b11 &
1'
#60000
0!
#65000
1!
b0 #
b1010 (
b10000 $
b100 &
0'
#70000
0!
#75000
1!
sEND/2 %
b100000 $
b101 &
#80000
0!
#85000
1!
b1101111 (
